(module R_0603 (layer F.Cu) (tedit 5B0B3509)
  (descr "0603 SMD Resistor, Reflow solder pads")
  (tags "r res resist resistor smd reflow 0603")
  (attr smd)
  (fp_text reference REF** (at 0 -1) (layer F.SilkS)
    (effects (font (size 0.4 0.4) (thickness 0.1)))
  )
  (fp_text value R_0603 (at 0 1) (layer F.Fab)
    (effects (font (size 0.4 0.4) (thickness 0.1)))
  )
  (fp_text user %R (at 0 0) (layer F.Fab)
    (effects (font (size 0.3 0.3) (thickness 0.075)))
  )
  (fp_line (start 0.8 -0.4) (end -0.8 -0.4) (layer F.Fab) (width 0.1))
  (fp_line (start -0.8 -0.4) (end -0.8 0.4) (layer F.Fab) (width 0.1))
  (fp_line (start -0.8 0.4) (end 0.8 0.4) (layer F.Fab) (width 0.1))
  (fp_line (start 0.8 0.4) (end 0.8 -0.4) (layer F.Fab) (width 0.1))
  (fp_line (start 0.6 0.6) (end -0.6 0.6) (layer F.SilkS) (width 0.1))
  (fp_line (start 0.6 -0.6) (end -0.6 -0.6) (layer F.SilkS) (width 0.1))
  (fp_line (start 1.2 -0.6) (end 1.2 0.6) (layer F.CrtYd) (width 0.05))
  (fp_line (start 1.2 0.6) (end -1.2 0.6) (layer F.CrtYd) (width 0.05))
  (fp_line (start -1.2 0.6) (end -1.2 -0.6) (layer F.CrtYd) (width 0.05))
  (fp_line (start -1.2 -0.6) (end 1.2 -0.6) (layer F.CrtYd) (width 0.05))
  (pad 1 smd rect (at -0.75 0) (size 0.6 0.9) (layers F.Cu F.Paste F.Mask))
  (pad 2 smd rect (at 0.75 0) (size 0.6 0.9) (layers F.Cu F.Paste F.Mask))
  (model Resistors_SMD.3dshapes/R_0603.wrl
    (at (xyz 0 0 0))
    (scale (xyz 1 1 1))
    (rotate (xyz 0 0 0))
  )
)
