(module Arduino_Nano_Shield (layer F.Cu) (tedit 5B0CDDA0)
  (descr https://store.arduino.cc/arduino-nano)
  (fp_text reference REF** (at 6.604 1.016) (layer F.Fab)
    (effects (font (size 1 1) (thickness 0.15)))
  )
  (fp_text value Arduino_Nano_Socket (at 0 2.794 180) (layer F.Fab)
    (effects (font (size 1 1) (thickness 0.15)))
  )
  (fp_line (start 8.89 0) (end 8.89 -43.18) (layer B.Fab) (width 0.15))
  (fp_line (start -8.89 0) (end 8.89 0) (layer B.Fab) (width 0.15))
  (fp_line (start -8.89 -43.18) (end -8.89 0) (layer B.Fab) (width 0.15))
  (fp_line (start 8.89 -43.18) (end -8.89 -43.18) (layer B.Fab) (width 0.15))
  (fp_circle (center 0 -39.37) (end 0.508 -39.37) (layer F.Fab) (width 0.15))
  (fp_circle (center 2.54 -39.37) (end 3.048 -39.37) (layer F.Fab) (width 0.15))
  (fp_circle (center 2.54 -41.91) (end 3.048 -41.91) (layer F.Fab) (width 0.15))
  (fp_circle (center -2.54 -39.37) (end -2.032 -39.37) (layer F.Fab) (width 0.15))
  (fp_circle (center 0 -41.91) (end 0.508 -41.91) (layer F.Fab) (width 0.15))
  (fp_circle (center -2.54 -41.91) (end -2.032 -41.91) (layer F.Fab) (width 0.15))
  (fp_line (start -3.302 1.778) (end -9.144 1.778) (layer F.CrtYd) (width 0.15))
  (fp_line (start -9.144 1.778) (end -9.144 -22.606) (layer F.CrtYd) (width 0.15))
  (fp_line (start -9.144 -22.606) (end -9.144 -43.434) (layer F.CrtYd) (width 0.15))
  (fp_line (start -9.144 -43.434) (end 9.144 -43.434) (layer F.CrtYd) (width 0.15))
  (fp_line (start 9.144 -43.434) (end 9.144 1.778) (layer F.CrtYd) (width 0.15))
  (fp_line (start 9.144 1.778) (end -3.302 1.778) (layer F.CrtYd) (width 0.15))
  (fp_line (start -4.064 0) (end -4.064 1.45) (layer F.Fab) (width 0.15))
  (fp_line (start -4.064 1.45) (end 4.064 1.45) (layer F.Fab) (width 0.15))
  (fp_line (start 4.064 1.45) (end 4.064 0) (layer F.Fab) (width 0.15))
  (fp_line (start -8.89 -43.18) (end 8.89 -43.18) (layer F.Fab) (width 0.15))
  (fp_line (start -8.89 0) (end 8.89 0) (layer F.Fab) (width 0.15))
  (fp_line (start 8.89 -43.18) (end 8.89 0) (layer F.Fab) (width 0.15))
  (fp_line (start -8.89 -43.18) (end -8.89 0) (layer F.Fab) (width 0.15))
  (pad VIN thru_hole circle (at 7.62 -39.37) (size 1.7272 1.7272) (drill 1.016) (layers *.Cu *.Mask))
  (pad GND2 thru_hole circle (at 7.62 -36.83) (size 1.7272 1.7272) (drill 1.016) (layers *.Cu *.Mask))
  (pad RST2 thru_hole circle (at 7.62 -34.29) (size 1.7272 1.7272) (drill 1.016) (layers *.Cu *.Mask))
  (pad 5V thru_hole circle (at 7.62 -31.75) (size 1.7272 1.7272) (drill 1.016) (layers *.Cu *.Mask))
  (pad A7 thru_hole circle (at 7.62 -29.21) (size 1.7272 1.7272) (drill 1.016) (layers *.Cu *.Mask))
  (pad A6 thru_hole circle (at 7.62 -26.67) (size 1.7272 1.7272) (drill 1.016) (layers *.Cu *.Mask))
  (pad A5 thru_hole circle (at 7.62 -24.13) (size 1.7272 1.7272) (drill 1.016) (layers *.Cu *.Mask))
  (pad A4 thru_hole circle (at 7.62 -21.59) (size 1.7272 1.7272) (drill 1.016) (layers *.Cu *.Mask))
  (pad A3 thru_hole circle (at 7.62 -19.05) (size 1.7272 1.7272) (drill 1.016) (layers *.Cu *.Mask))
  (pad A2 thru_hole circle (at 7.62 -16.51) (size 1.7272 1.7272) (drill 1.016) (layers *.Cu *.Mask))
  (pad A1 thru_hole circle (at 7.62 -13.97) (size 1.7272 1.7272) (drill 1.016) (layers *.Cu *.Mask))
  (pad A0 thru_hole circle (at 7.62 -11.43) (size 1.7272 1.7272) (drill 1.016) (layers *.Cu *.Mask))
  (pad AREF thru_hole circle (at 7.62 -8.89) (size 1.7272 1.7272) (drill 1.016) (layers *.Cu *.Mask))
  (pad 3V3 thru_hole circle (at 7.62 -6.35) (size 1.7272 1.7272) (drill 1.016) (layers *.Cu *.Mask))
  (pad D13 thru_hole circle (at 7.62 -3.81) (size 1.7272 1.7272) (drill 1.016) (layers *.Cu *.Mask))
  (pad D12 thru_hole circle (at -7.62 -3.81) (size 1.7272 1.7272) (drill 1.016) (layers *.Cu *.Mask))
  (pad D11 thru_hole circle (at -7.62 -6.35) (size 1.7272 1.7272) (drill 1.016) (layers *.Cu *.Mask))
  (pad D10 thru_hole circle (at -7.62 -8.89) (size 1.7272 1.7272) (drill 1.016) (layers *.Cu *.Mask))
  (pad D9 thru_hole circle (at -7.62 -11.43) (size 1.7272 1.7272) (drill 1.016) (layers *.Cu *.Mask))
  (pad D8 thru_hole circle (at -7.62 -13.97) (size 1.7272 1.7272) (drill 1.016) (layers *.Cu *.Mask))
  (pad D7 thru_hole circle (at -7.62 -16.51) (size 1.7272 1.7272) (drill 1.016) (layers *.Cu *.Mask))
  (pad D6 thru_hole circle (at -7.62 -19.05) (size 1.7272 1.7272) (drill 1.016) (layers *.Cu *.Mask))
  (pad D5 thru_hole circle (at -7.62 -21.59) (size 1.7272 1.7272) (drill 1.016) (layers *.Cu *.Mask))
  (pad D4 thru_hole circle (at -7.62 -24.13) (size 1.7272 1.7272) (drill 1.016) (layers *.Cu *.Mask))
  (pad D3 thru_hole circle (at -7.62 -26.67) (size 1.7272 1.7272) (drill 1.016) (layers *.Cu *.Mask))
  (pad D2 thru_hole circle (at -7.62 -29.21) (size 1.7272 1.7272) (drill 1.016) (layers *.Cu *.Mask))
  (pad GND1 thru_hole circle (at -7.62 -31.75) (size 1.7272 1.7272) (drill 1.016) (layers *.Cu *.Mask))
  (pad RST1 thru_hole circle (at -7.62 -34.29) (size 1.7272 1.7272) (drill 1.016) (layers *.Cu *.Mask))
  (pad D0 thru_hole circle (at -7.62 -36.83) (size 1.7272 1.7272) (drill 1.016) (layers *.Cu *.Mask))
  (pad D1 thru_hole rect (at -7.62 -39.37) (size 1.7272 1.7272) (drill 1.016) (layers *.Cu *.Mask))
  (pad "" np_thru_hole circle (at -7.62 -41.91) (size 1.85 1.85) (drill 1.85) (layers *.Cu *.Mask))
  (pad "" np_thru_hole circle (at 7.62 -41.91) (size 1.85 1.85) (drill 1.85) (layers *.Cu *.Mask))
  (pad "" np_thru_hole circle (at -7.62 -1.27) (size 1.85 1.85) (drill 1.85) (layers *.Cu *.Mask))
  (pad "" np_thru_hole circle (at 7.62 -1.27) (size 1.85 1.85) (drill 1.85) (layers *.Cu *.Mask))
  (model Pin_Headers.3dshapes/Pin_Header_Straight_1x15_Pitch2.54mm.wrl
    (at (xyz 0.3 0.15 -0.06299200000000001))
    (scale (xyz 1 1 1))
    (rotate (xyz 180 0 0))
  )
  (model Pin_Headers.3dshapes/Pin_Header_Straight_1x15_Pitch2.54mm.wrl
    (at (xyz -0.3 0.15 -0.06299200000000001))
    (scale (xyz 1 1 1))
    (rotate (xyz 180 0 0))
  )
)
